@jobs
task: scf
@end

@method settings
basis: def2-svp
@end

@molecule
charge: -1
multiplicity: 1
xyz:
N        -8.785000       16.891001       14.314000
C        -9.382000       16.940001       12.938000
C        -9.621000       15.536000       12.448000
O        -9.497000       14.563000       13.228000
H        -8.562000       17.871000       14.559000
H        -9.544000       16.534000       14.911000
H        -7.939000       16.294001       14.400000
H       -10.303000       17.481001       12.939000
H        -8.645000       17.402000       12.307000
N        -9.958000       15.423000       11.162000
C       -10.280000       14.136000       10.572000
C        -9.116000       13.192000       10.627000
O        -9.302000       11.982000       10.831000
C       -10.782000       14.318000        9.109000
C       -11.361000       13.009000        8.567000
C        -9.680000       14.831000        8.203000
C       -12.674000       12.584000        9.227000
H        -9.952000       16.235001       10.635000
H       -11.126000       13.761000       11.152000
H       -11.583000       15.061000        9.103000
H       -11.562000       13.160000        7.517000
H       -10.654000       12.189000        8.651000
H       -10.113000       14.966000        7.197000
H        -9.476000       15.807000        8.635000
H        -8.786000       14.195000        8.166000
H       -13.417000       13.332000        8.983000
H       -12.587000       12.506000       10.286000
H       -13.000000       11.647000        8.804000
N        -7.903000       13.690000       10.468000
C        -6.749000       12.794000       10.514000
C        -6.612000       12.125000       11.861000
O        -6.320000       10.925000       11.952000
C        -5.481000       13.576000       10.150000
C        -4.252000       12.709000       10.294000
C        -5.599000       14.103000        8.715000
H        -7.779000       14.646000       10.287000
H        -6.869000       11.975000        9.835000
H        -5.374000       14.417000       10.794000
H        -4.453000       11.733000        9.870000
H        -3.400000       13.159000        9.783000
H        -4.040000       12.579000       11.346000
H        -5.575000       13.279000        8.005000
H        -6.509000       14.675000        8.603000
H        -4.783000       14.776000        8.481000
N        -6.818000       12.895000       12.919000
C        -6.737000       12.362000       14.260000
C        -7.948000       11.497000       14.616000
O        -7.787000       10.423000       15.182000
C        -6.552000       13.528000       15.239000
C        -5.271000       14.353000       14.992000
C        -5.307000       15.207000       13.720000
O        -6.374000       15.757000       13.369000
O        -4.212000       15.323000       13.102000
H        -6.976000       13.845000       12.757000
H        -5.858000       11.753000       14.319000
H        -7.418000       14.148000       15.176000
H        -6.477000       13.055000       16.223000
H        -5.021000       14.968000       15.838000
H        -4.457000       13.661000       14.891000
N        -9.151000       11.924000       14.262000
C       -10.336000       11.142000       14.576000
C       -10.299000        9.736000       13.974000
O       -10.643000        8.743000       14.603000
C       -11.546000       11.893000       14.042000
C       -12.861000       11.236000       14.294000
C       -13.906000       11.558000       13.219000
O       -13.976000       12.695000       12.699000
N       -14.732000       10.586000       12.903000
H        -9.240000       12.831000       13.923000
H       -10.461000       11.021000       15.635000
H       -11.603000       12.876000       14.479000
H       -11.414000       11.980000       12.989000
H       -12.747000       10.177000       14.410000
H       -13.228000       11.624000       15.231000
H       -14.676000        9.719000       13.344000
H       -15.367000       10.790000       12.185000
N        -9.930000        9.652000       12.701000
C        -9.898000        8.356000       12.059000
C        -8.952000        7.360000       12.706000
O        -9.151000        6.165000       12.621000
C        -9.510000        8.515000       10.577000
S       -10.757000        9.298000        9.523000
H        -9.614000       10.453000       12.238000
H       -10.862000        7.925000       12.069000
H        -8.602000        9.099000       10.536000
H        -9.302000        7.517000       10.212000
N        -7.897000        7.897000       13.321000
C        -6.871000        7.070000       13.939000
C        -7.148000        6.775000       15.397000
O        -6.972000        5.632000       15.839000
C        -5.499000        7.735000       13.751000
S        -4.076000        6.772000       14.322000
H        -7.788000        8.874000       13.418000
H        -6.823000        6.111000       13.441000
H        -5.420000        8.038000       12.716000
H        -5.558000        8.662000       14.322000
N        -7.601000        7.761000       16.150000
C        -7.851000        7.513000       17.573000
C        -9.224000        6.926000       17.841000
O        -9.410000        6.247000       18.864000
C        -7.720000        8.786000       18.393999
O        -8.721000        9.708000       17.959000
C        -6.366000        9.396000       18.230000
H        -7.791000        8.639000       15.735000
H        -7.098000        6.815000       17.893999
H        -7.877000        8.530000       19.431000
H        -9.598000        9.319000       18.031000
H        -6.266000        9.837000       17.235001
H        -6.200000       10.177000       18.969999
H        -5.617000        8.632000       18.316999
N       -10.177000        7.161000       16.947001
C       -11.520000        6.616000       17.082001
C       -11.797000        5.874000       15.766000
O       -11.006000        5.034000       15.344000
C       -12.492000        7.779000       17.313000
O       -13.822000        7.375000       17.601999
H        -9.930000        7.695000       16.167000
H       -11.595000        5.880000       17.893000
H       -12.113000        8.360000       18.132000
H       -12.495000        8.396000       16.417000
H       -14.196000        6.857000       16.889000
N       -12.936000        6.155000       15.131000
C       -13.239000        5.578000       13.831000
C       -13.864000        6.729000       13.043000
O       -14.275000        7.718000       13.615000
C       -14.224000        4.348000       13.871000
C       -15.555000        4.710000       14.524000
C       -13.552000        3.167000       14.617000
C       -16.542000        3.554000       14.588000
H       -13.573000        6.757000       15.568000
H       -12.345000        5.344000       13.290000
H       -14.369000        4.120000       12.831000
H       -15.342000        4.990000       15.546000
H       -16.034000        5.554000       14.059000
H       -12.550000        3.051000       14.235000
H       -13.540000        3.418000       15.667000
H       -14.105000        2.253000       14.484000
H       -17.499001        3.955000       14.297000
H       -16.606001        3.150000       15.595000
H       -16.289000        2.743000       13.932000
N       -13.949000        6.561000       11.735000
C       -14.569000        7.564000       10.887000
C       -15.227000        6.876000        9.692000
O       -14.895000        5.729000        9.349000
C       -13.527000        8.593000       10.454000
S       -12.236000        7.897000        9.382000
H       -13.602000        5.780000       11.270000
H       -15.376000        8.075000       11.405000
H       -14.006000        9.443000        9.973000
H       -13.099000        8.902000       11.354000
N       -16.198999        7.557000        9.087000
C       -16.907000        6.996000        7.963000
C       -16.386999        7.538000        6.626000
O       -15.743000        8.600000        6.581000
C       -18.391001        7.321000        8.073000
O       -18.580000        8.688000        7.862000
H       -16.379000        8.461000        9.397000
H       -16.809999        5.944000        7.885000
H       -18.910000        6.703000        7.384000
H       -18.660999        7.056000        9.081000
H       -18.370001        8.862000        6.944000
N       -16.709000        6.836000        5.547000
C       -16.309999        7.297000        4.252000
C       -17.042999        8.594000        3.922000
O       -16.533001        9.408000        3.131000
C       -16.611000        6.262000        3.170000
C       -15.876000        4.936000        3.323000
C       -16.101000        4.116000        2.036000
C       -14.400000        5.144000        3.550000
H       -17.320000        6.082000        5.592000
H       -15.250000        7.517000        4.261000
H       -17.659000        6.051000        3.175000
H       -16.344000        6.652000        2.189000
H       -16.299999        4.409000        4.180000
H       -17.153999        3.991000        1.866000
H       -15.624000        4.590000        1.189000
H       -15.654000        3.157000        2.191000
H       -14.199000        5.690000        4.450000
H       -13.925000        4.176000        3.656000
H       -13.941000        5.657000        2.726000
N       -18.225000        8.795000        4.508000
C       -18.988001       10.008000        4.283000
C       -18.302000       11.180000        4.966000
O       -18.309000       12.292000        4.422000
C       -20.436001        9.808000        4.731000
C       -21.155001        8.804000        3.868000
C       -21.733000        9.186000        2.666000
C       -21.191000        7.473000        4.208000
C       -22.316000        8.272000        1.837000
C       -21.787001        6.557000        3.369000
C       -22.341999        6.969000        2.191000
O       -22.948000        6.036000        1.371000
H       -18.620001        8.112000        5.093000
H       -18.974001       10.268000        3.234000
H       -20.440001        9.506000        5.791000
H       -20.841999       10.782000        4.601000
H       -21.705000       10.230000        2.394000
H       -20.759001        7.161000        5.139000
H       -22.754999        8.602000        0.916000
H       -21.802999        5.518000        3.661000
H       -23.264999        6.553000        0.619000
N       -17.719000       10.986000        6.154000
C       -16.938999       12.046000        6.792000
C       -15.709000       12.360000        5.924000
O       -15.324000       13.542000        5.777000
C       -16.506001       11.627000        8.212000
C       -17.691000       11.614000        9.156000
C       -17.341000       10.981000       10.482000
O       -16.483000       10.081000       10.548000
N       -18.007000       11.397000       11.540000
H       -17.843000       10.133000        6.621000
H       -17.535000       12.998000        6.892000
H       -16.083000       10.635000        8.180000
H       -15.823000       12.368000        8.536000
H       -17.971001       12.642000        9.318000
H       -18.490000       11.066000        8.695000
H       -18.681999       12.089000       11.345000
H       -17.785999       11.032000       12.424000
N       -15.070000       11.331000        5.380000
C       -13.904000       11.559000        4.534000
C       -14.254000       12.365000        3.307000
O       -13.434000       13.170000        2.824000
C       -13.272000       10.234000        4.079000
C       -12.669000        9.386000        5.181000
C       -11.946000        8.202000        4.574000
C       -11.746000       10.208000        6.000000
H       -15.416000       10.420000        5.477000
H       -13.231000       12.123000        5.047000
H       -14.046000        9.627000        3.615000
H       -12.509000       10.430000        3.348000
H       -13.452000        8.992000        5.809000
H       -11.692000        7.493000        5.337000
H       -12.576000        7.731000        3.849000
H       -11.052000        8.516000        4.086000
H       -11.221000        9.526000        6.645000
H       -11.043000       10.758000        5.407000
H       -12.340000       10.845000        6.637000
N       -15.431000       12.138000        2.759000
C       -15.825000       12.845000        1.557000
C       -15.799000       14.358000        1.698000
O       -15.668000       15.081000        0.697000
C       -17.202999       12.339000        1.147000
C       -17.549000       12.679000       -0.267000
C       -18.913000       12.188000       -0.666000
O       -19.798000       11.980000        0.220000
O       -19.082001       12.027000       -1.889000
H       -16.016001       11.443000        3.132000
H       -15.146000       12.614000        0.747000
H       -17.216999       11.267000        1.216000
H       -17.955999       12.774000        1.789000
H       -17.475000       13.738000       -0.420000
H       -16.823999       12.228000       -0.928000
N       -15.897000       14.862000        2.912000
C       -15.862000       16.298000        3.100000
C       -14.507000       16.900000        2.800000
O       -14.394000       18.121000        2.704000
C       -16.261999       16.624001        4.523000
C       -17.695000       16.232000        4.811000
O       -18.584999       16.357000        3.941000
N       -17.936001       15.741000        6.015000
H       -15.922000       14.314000        3.735000
H       -16.559000       16.749001        2.436000
H       -15.596000       16.177999        5.237000
H       -16.167999       17.674000        4.740000
H       -18.850000       15.469000        6.198000
H       -17.204000       15.709000        6.659000
N       -13.481000       16.054001        2.664000
C       -12.129000       16.530001        2.343000
C       -11.827000       16.437000        0.857000
O       -10.728000       16.785000        0.433000
C       -11.124000       15.754000        3.195000
C       -11.383000       16.134001        4.627000
C       -12.391000       15.514000        5.385000
C       -10.750000       17.239000        5.163000
C       -12.753000       16.009001        6.630000
C       -11.109000       17.732000        6.409000
C       -12.111000       17.107000        7.124000
O       -12.465000       17.591000        8.370000
H       -13.637000       15.087000        2.708000
H       -12.028000       17.584000        2.605000
H       -11.093000       14.693000        3.013000
H       -10.134000       16.084999        2.974000
H       -12.895000       14.646000        4.974000
H        -9.966000       17.722000        4.588000
H       -13.521000       15.513000        7.180000
H       -10.602000       18.591000        6.798000
H       -13.324000       17.200001        8.525000
N       -12.782000       15.978000        0.062000
C       -12.564000       15.968000       -1.382000
C       -12.635000       17.410999       -1.910000
O       -13.311000       18.275000       -1.312000
C       -13.643000       15.184000       -2.110000
S       -13.835000       13.449000       -1.574000
H       -13.638000       15.727000        0.478000
H       -11.610000       15.489000       -1.552000
H       -14.590000       15.697000       -1.985000
H       -13.349000       15.188000       -3.157000
N       -11.930000       17.671000       -3.006000
C       -11.991000       19.004999       -3.626000
C       -13.304000       19.191000       -4.382000
O       -13.977000       18.191999       -4.714000
C       -10.840000       19.250999       -4.603000
C        -9.499000       19.117001       -3.971000
O        -9.196000       19.760000       -2.967000
N        -8.671000       18.264999       -4.548000
O       -13.638000       20.368999       -4.636000
H       -11.489000       16.957001       -3.476000
H       -11.949000       19.726999       -2.839000
H       -10.906000       18.572001       -5.420000
H       -10.936000       20.283001       -4.977000
H        -7.765000       18.120001       -4.197000
H        -9.026000       17.773001       -5.329000
N       -21.693001        1.061000        3.351000
C       -20.267000        1.208000        3.765000
C       -20.136000        1.054000        5.267000
O       -21.122000        1.153000        6.011000
C       -19.719999        2.557000        3.312000
C       -19.823999        2.781000        1.826000
C       -19.268000        1.901000        0.924000
C       -20.445999        3.911000        1.340000
C       -19.327000        2.136000       -0.428000
C       -20.514000        4.162000       -0.018000
C       -19.952000        3.264000       -0.904000
H       -22.232000        1.850000        3.740000
H       -22.025999        0.150000        3.716000
H       -21.747000        1.067000        2.307000
H       -19.672001        0.438000        3.305000
H       -20.354000        3.251000        3.869000
H       -18.737000        2.587000        3.688000
H       -18.789000        1.028000        1.312000
H       -20.872000        4.589000        2.046000
H       -18.881001        1.428000       -1.109000
H       -21.006001        5.054000       -0.367000
H       -20.007000        3.458000       -1.965000
N       -18.926001        0.748000        5.695000
C       -18.655001        0.530000        7.108000
C       -17.732000        1.587000        7.635000
O       -17.079000        2.278000        6.854000
C       -18.020000       -0.863000        7.343000
C       -19.004999       -1.963000        6.944000
C       -16.733999       -0.993000        6.582000
H       -18.191999        0.679000        5.062000
H       -19.542999        0.625000        7.722000
H       -17.825001       -1.057000        8.399000
H       -19.370001       -1.771000        5.950000
H       -18.441999       -2.889000        6.972000
H       -19.827000       -2.011000        7.649000
H       -16.462999       -2.034000        6.511000
H       -16.912001       -0.616000        5.597000
H       -15.946000       -0.452000        7.091000
N       -17.698999        1.734000        8.952000
C       -16.787001        2.684000        9.543000
C       -15.377000        2.122000        9.495000
O       -15.172000        0.905000        9.418000
C       -17.216999        3.031000       10.948000
C       -18.535999        3.791000       10.969000
O       -18.732000        4.714000       10.177000
N       -19.434000        3.418000       11.873000
H       -18.306000        1.185000        9.502000
H       -16.737000        3.578000        8.950000
H       -17.252001        2.116000       11.479000
H       -16.430000        3.655000       11.371000
H       -19.128000        2.683000       12.449000
H       -20.316999        3.845000       11.915000
N       -14.350000        2.962000        9.495000
C       -12.984000        2.431000        9.418000
C       -12.065000        3.156000       10.380000
O       -12.255000        4.291000       10.701000
C       -12.411000        2.538000        7.998000
C       -13.060000        1.635000        6.940000
C       -12.484000        0.235000        6.854000
O       -12.891000       -0.550000        5.989000
N       -11.544000       -0.096000        7.727000
H       -14.511000        3.911000        9.629000
H       -12.959000        1.416000        9.735000
H       -12.565000        3.578000        7.701000
H       -11.344000        2.358000        8.034000
H       -14.111000        1.509000        7.143000
H       -12.950000        2.087000        5.975000
H       -11.196000       -1.008000        7.621000
H       -11.242000        0.513000        8.436000
N       -11.008000        2.468000       10.765000
C        -9.965000        2.880000       11.706000
C        -8.758000        3.058000       10.780000
O        -8.206000        2.080000       10.282000
C        -9.728000        1.766000       12.698000
C        -8.719000        2.116000       13.731000
N        -8.115000        1.170000       14.529000
C        -8.211000        3.306000       14.116000
C        -7.276000        1.762000       15.360000
N        -7.317000        3.064000       15.135000
H       -10.932000        1.638000       10.292000
H       -10.242000        3.805000       12.211000
H       -10.647000        1.406000       13.141000
H        -9.348000        0.914000       12.158000
H        -8.333000        0.225000       14.505000
H        -8.442000        4.273000       13.722000
H        -6.639000        1.258000       16.077000
H        -6.805000        3.752000       15.599000
N        -8.374000        4.314000       10.565000
C        -7.337000        4.637000        9.583000
C        -6.289000        5.550000       10.157000
O        -6.591000        6.706000       10.528000
C        -7.975000        5.339000        8.371000
C        -9.076000        4.553000        7.682000
C        -9.922000        5.508000        6.832000
C        -8.476000        3.438000        6.842000
H        -8.750000        5.034000       11.097000
H        -6.821000        3.744000        9.221000
H        -8.372000        6.309000        8.667000
H        -7.194000        5.524000        7.637000
H        -9.759000        4.133000        8.410000
H       -10.320000        6.257000        7.495000
H        -9.289000        5.996000        6.098000
H       -10.719000        4.957000        6.385000
H        -7.957000        2.720000        7.460000
H        -9.325000        2.972000        6.353000
H        -7.813000        3.846000        6.083000
N        -5.053000        5.058000       10.201000
C        -3.926000        5.818000       10.676000
C        -2.869000        5.943000        9.579000
O        -2.787000        5.129000        8.666000
C        -3.268000        5.132000       11.871000
S        -4.288000        4.967000       13.369000
H        -4.888000        4.131000        9.942000
H        -4.278000        6.787000       11.011000
H        -2.924000        4.157000       11.561000
H        -2.425000        5.763000       12.082000
N        -2.079000        7.001000        9.670000
C        -0.987000        7.176000        8.741000
C        -1.373000        7.178000        7.292000
O        -2.369000        7.796000        6.893000
H        -2.225000        7.727000       10.304000
H        -0.546000        8.131000        8.950000
H        -0.291000        6.368000        8.927000
N        -0.585000        6.472000        6.490000
C        -0.817000        6.474000        5.080000
C        -2.113000        5.791000        4.724000
O        -2.614000        5.985000        3.625000
C         0.346000        5.813000        4.336000
O         0.577000        4.511000        4.818000
H         0.077000        5.865000        6.831000
H        -0.874000        7.499000        4.730000
H         0.147000        5.723000        3.287000
H         1.251000        6.381000        4.504000
H         0.975000        4.548000        5.694000
N        -2.682000        4.979000        5.617000
C        -3.937000        4.319000        5.275000
C        -5.053000        5.333000        5.108000
O        -5.987000        5.107000        4.337000
C        -4.279000        3.296000        6.353000
C        -3.234000        2.230000        6.496000
N        -3.012000        1.275000        5.529000
C        -2.320000        1.988000        7.472000
C        -2.010000        0.491000        5.920000
N        -1.577000        0.892000        7.097000
H        -2.236000        4.863000        6.471000
H        -3.854000        3.784000        4.328000
H        -4.205000        3.811000        7.253000
H        -5.213000        2.823000        6.148000
H        -3.501000        1.181000        4.686000
H        -2.211000        2.561000        8.373000
H        -1.680000       -0.327000        5.289000
N        -4.975000        6.446000        5.835000
C        -5.994000        7.451000        5.662000
C        -5.910000        8.087000        4.284000
O        -6.923000        8.346000        3.654000
C        -5.867000        8.525000        6.727000
C        -6.905000        9.648000        6.541000
C        -8.359000        9.107000        6.435000
C        -6.792000       10.573000        7.648000
H        -4.279000        6.545000        6.494000
H        -6.922000        6.954000        5.782000
H        -6.033000        8.013000        7.664000
H        -4.906000        8.925000        6.729000
H        -6.703000       10.208000        5.630000
H        -8.552000        8.902000        5.402000
H        -8.497000        8.220000        7.019000
H        -9.067000        9.843000        6.762000
H        -7.677000       11.194000        7.648000
H        -6.812000       10.011000        8.567000
H        -5.931000       11.193000        7.532000
N        -4.683000        8.307000        3.824000
C        -4.432000        8.878000        2.510000
C        -4.986000        7.971000        1.402000
O        -5.585000        8.438000        0.435000
C        -2.928000        9.068000        2.337000
C        -2.623000        9.456000        0.917000
C        -2.433000       10.143000        3.327000
H        -3.921000        8.121000        4.410000
H        -4.917000        9.830000        2.400000
H        -2.391000        8.152000        2.533000
H        -2.707000        8.558000        0.324000
H        -3.341000       10.189000        0.587000
H        -1.616000        9.834000        0.835000
H        -3.154000       10.951000        3.304000
H        -2.334000        9.732000        4.311000
H        -1.488000       10.524000        2.991000
N        -4.786000        6.674000        1.557000
C        -5.324000        5.699000        0.608000
C        -6.843000        5.767000        0.576000
O        -7.446000        5.684000       -0.500000
C        -4.913000        4.288000        0.988000
C        -3.440000        3.974000        0.788000
C        -3.078000        3.712000       -0.659000
O        -3.984000        3.443000       -1.474000
O        -1.856000        3.752000       -0.981000
H        -4.226000        6.395000        2.319000
H        -4.944000        5.927000       -0.358000
H        -5.190000        4.163000        2.032000
H        -5.512000        3.573000        0.443000
H        -2.884000        4.856000        1.050000
H        -3.110000        3.134000        1.373000
N        -7.469000        5.878000        1.747000
C        -8.932000        5.961000        1.792000
C        -9.440000        7.241000        1.126000
O       -10.434000        7.205000        0.390000
C        -9.416000        5.889000        3.239000
H        -6.942000        5.966000        2.566000
H        -9.365000        5.141000        1.245000
H        -8.961000        5.021000        3.690000
H        -9.172000        6.790000        3.774000
H       -10.487000        5.730000        3.203000
N        -8.806000        8.364000        1.414000
C        -9.209000        9.611000        0.744000
C        -9.086000        9.490000       -0.765000
O        -9.938000        9.963000       -1.518000
C        -8.345000       10.775000        1.239000
C        -8.730000       11.265000        2.636000
C        -7.587000       12.054000        3.223000
C       -10.008000       12.100000        2.583000
H        -8.125000        8.361000        2.120000
H       -10.231000        9.811000        0.979000
H        -7.264000       10.569000        1.191000
H        -8.552000       11.597000        0.558000
H        -8.911000       10.400000        3.223000
H        -6.682000       11.500000        3.327000
H        -7.436000       12.921000        2.616000
H        -7.925000       12.363000        4.211000
H        -9.747000       13.007000        2.061000
H       -10.782000       11.592000        2.021000
H       -10.297000       12.365000        3.595000
N        -8.023000        8.862000       -1.216000
C        -7.825000        8.700000       -2.640000
C        -8.985000        7.945000       -3.282000
O        -9.509000        8.338000       -4.338000
C        -6.494000        7.984000       -2.886000
C        -6.231000        7.683000       -4.344000
C        -5.795000        8.663000       -5.216000
C        -6.512000        6.436000       -4.851000
C        -5.672000        8.411000       -6.575000
C        -6.373000        6.167000       -6.196000
C        -5.962000        7.155000       -7.040000
O        -5.835000        6.887000       -8.400000
H        -7.368000        8.515000       -0.574000
H        -7.753000        9.695000       -3.048000
H        -5.739000        8.597000       -2.458000
H        -6.534000        7.060000       -2.327000
H        -5.565000        9.647000       -4.849000
H        -6.829000        5.671000       -4.178000
H        -5.321000        9.229000       -7.207000
H        -6.592000        5.199000       -6.588000
H        -5.642000        7.772000       -8.735000
N        -9.396000        6.862000       -2.647000
C       -10.509000        6.081000       -3.161000
C       -11.842000        6.788000       -3.066000
O       -12.631000        6.745000       -4.005000
C       -10.586000        4.763000       -2.411000
C        -9.435000        3.812000       -2.698000
C        -9.578000        2.601000       -1.812000
C        -9.452000        3.378000       -4.163000
H        -8.962000        6.540000       -1.826000
H       -10.374000        5.853000       -4.203000
H       -10.607000        4.940000       -1.349000
H       -11.497000        4.227000       -2.658000
H        -8.503000        4.296000       -2.485000
H        -9.580000        2.903000       -0.774000
H       -10.490000        2.090000       -2.068000
H        -8.718000        1.966000       -1.992000
H       -10.418000        3.595000       -4.599000
H        -8.676000        3.895000       -4.695000
H        -9.279000        2.315000       -4.227000
N       -12.116000        7.429000       -1.944000
C       -13.381000        8.092000       -1.814000
C       -13.537000        9.243000       -2.793000
O       -14.608000        9.423000       -3.399000
C       -13.523000        8.630000       -0.390000
C       -14.675000        9.622000       -0.308000
C       -13.748000        7.477000        0.539000
H       -11.431000        7.466000       -1.271000
H       -14.188000        7.413000       -1.994000
H       -12.624000        9.137000       -0.090000
H       -14.395000       10.585000       -0.710000
H       -15.501000        9.236000       -0.865000
H       -14.943000        9.744000        0.734000
H       -14.706000        7.012000        0.355000
H       -12.941000        6.785000        0.530000
H       -13.792000        7.916000        1.511000
N       -12.478000       10.030000       -2.972000
C       -12.566000       11.243000       -3.760000
C       -12.346000       11.085000       -5.244000
O       -12.850000       11.893000       -6.042000
C       -11.584000       12.243000       -3.211000
S       -11.960000       12.696000       -1.475000
H       -11.599000        9.698000       -2.715000
H       -13.534000       11.703000       -3.639000
H       -10.583000       11.978000       -3.365000
H       -11.750000       13.129000       -3.798000
N       -11.610000       10.066000       -5.627000
C       -11.372000        9.869000       -7.043000
C       -10.796000       11.084000       -7.743000
O        -9.951000       11.809000       -7.209000
H       -11.215000        9.455000       -4.958000
H       -10.588000        9.141000       -7.128000
H       -12.279000        9.577000       -7.543000
N       -11.325000       11.357000       -8.933000
C       -10.834000       12.463000       -9.735000
C       -11.055000       13.823000       -9.109000
O       -10.469000       14.823000       -9.557000
C       -11.433000       12.424000      -11.137000
C       -12.919000       12.599000      -11.173000
C       -13.432000       13.106000      -12.522000
O       -12.616000       13.576000      -13.339000
O       -14.658000       13.053000      -12.755000
H       -12.128000       10.889000       -9.197000
H        -9.771000       12.299000       -9.841000
H       -10.918000       13.221000      -11.659000
H       -11.136000       11.478000      -11.556000
H       -13.310000       11.591000      -11.064000
H       -13.327000       13.207000      -10.378000
N       -11.867000       13.898000       -8.069000
C       -12.066000       15.161000       -7.403000
C       -10.785000       15.575000       -6.672000
O       -10.513000       16.768999       -6.489000
C       -13.161000       15.035000       -6.352000
C       -14.556000       14.781000       -6.931000
C       -15.609000       14.609000       -5.849000
N       -15.535000       13.304000       -5.196000
C       -16.402000       12.896000       -4.269000
N       -17.391001       13.691000       -3.881000
N       -16.302999       11.685000       -3.742000
H       -12.347000       13.110000       -7.775000
H       -12.350000       15.926000       -8.101000
H       -12.916000       14.231000       -5.671000
H       -13.170000       15.982000       -5.830000
H       -14.880000       15.566000       -7.619000
H       -14.508000       13.855000       -7.486000
H       -15.614000       15.428000       -5.171000
H       -16.575001       14.655000       -6.361000
H       -14.824000       12.679000       -5.464000
H       -17.530001       14.616000       -4.259000
H       -18.021000       13.335000       -3.188000
H       -15.570000       11.059000       -4.035000
H       -16.969999       11.417000       -3.049000
N        -9.997000       14.600000       -6.253000
C        -8.840000       14.924000       -5.443000
C        -9.268000       15.272000       -4.018000
O       -10.453000       15.227000       -3.679000
H       -10.030000       13.672000       -6.550000
H        -8.246000       14.061000       -5.434000
H        -8.401000       15.789000       -5.907000
N        -8.302000       15.643000       -3.181000
C        -8.618000       15.907000       -1.790000
C        -7.481000       16.690001       -1.173000
O        -6.388000       16.841000       -1.750000
C        -8.766000       14.554000       -1.030000
C        -7.544000       13.682000       -1.039000
C        -6.593000       13.788000       -0.054000
C        -7.371000       12.733000       -2.033000
C        -5.504000       12.969000       -0.042000
C        -6.267000       11.903000       -2.034000
C        -5.336000       12.015000       -1.036000
H        -7.382000       15.788000       -3.497000
H        -9.528000       16.452000       -1.695000
H        -9.125000       14.830000       -0.070000
H        -9.581000       14.104000       -1.557000
H        -6.646000       14.504000        0.763000
H        -8.083000       12.636000       -2.810000
H        -4.771000       13.074000        0.742000
H        -6.119000       11.154000       -2.794000
H        -4.466000       11.405000       -0.984000
N        -7.737000       17.150000        0.052000
C        -6.740000       17.794001        0.875000
C        -6.519000       16.900999        2.122000
O        -7.486000       16.389999        2.725000
C        -7.175000       19.198999        1.383000
C        -6.856000       20.337000        0.458000
C        -7.455000       20.434999       -0.780000
C        -5.953000       21.323000        0.842000
C        -7.168000       21.492001       -1.630000
C        -5.658000       22.379999        0.005000
C        -6.269000       22.469000       -1.240000
H        -8.627000       17.054001        0.460000
H        -5.819000       17.844999        0.347000
H        -8.195000       19.160999        1.698000
H        -6.623000       19.313000        2.304000
H        -8.145000       19.662001       -1.048000
H        -5.459000       21.283001        1.808000
H        -7.660000       21.524000       -2.585000
H        -4.943000       23.118999        0.359000
H        -6.046000       23.288000       -1.901000
N        -5.247000       16.719999        2.458000
C        -4.812000       15.974000        3.640000
C        -4.254000       17.011000        4.607000
O        -3.209000       17.622999        4.357000
C        -3.745000       14.975000        3.270000
C        -3.194000       14.225000        4.457000
C        -3.979000       13.309000        5.154000
C        -1.898000       14.429000        4.860000
C        -3.478000       12.598000        6.228000
C        -1.376000       13.741000        5.952000
C        -2.187000       12.819000        6.628000
O        -1.675000       12.151000        7.735000
H        -4.535000       17.091000        1.910000
H        -5.666000       15.481000        4.052000
H        -4.108000       14.302000        2.558000
H        -2.936000       15.520000        2.836000
H        -5.002000       13.128000        4.853000
H        -1.280000       15.130000        4.350000
H        -4.114000       11.902000        6.737000
H        -0.365000       13.925000        6.251000
H        -2.245000       11.430000        7.992000
N        -4.941000       17.190001        5.745000
C        -4.536000       18.216000        6.670000
C        -4.527000       17.775999        8.121000
O        -5.507000       17.922001        8.861000
C        -5.396000       19.483999        6.506000
O        -5.289000       19.922001        5.130000
C        -4.854000       20.601999        7.383000
H        -5.713000       16.624001        5.973000
H        -3.534000       18.518000        6.425000
H        -6.413000       19.283001        6.716000
H        -4.364000       20.113001        4.981000
H        -3.777000       20.497000        7.421000
H        -5.093000       21.532000        6.885000
H        -5.273000       20.532000        8.378000
N        -3.409000       17.224001        8.533000
C        -3.257000       16.783001        9.916000
C        -3.126000       17.990000       10.819000
O        -2.774000       19.101000       10.364000
C        -1.923000       16.041000        9.922000
C        -1.659000       15.704000        8.507000
C        -2.239000       16.837999        7.727000
H        -4.061000       16.118999       10.174000
H        -1.144000       16.688999       10.242000
H        -1.964000       15.139000       10.513000
H        -0.611000       15.548000        8.300000
H        -2.222000       14.817000        8.305000
H        -1.552000       17.700001        7.745000
H        -2.523000       16.569000        6.727000
N        -3.377000       17.771000       12.110000
C        -3.141000       18.819000       13.108000
C        -1.638000       18.958000       13.247000
O        -0.901000       17.975000       13.106000
C        -3.670000       18.434000       14.493000
C        -5.079000       18.844000       14.740000
C        -5.577000       18.358000       16.099001
C        -4.712000       18.816000       17.256001
N        -4.442000       20.278999       17.291000
H        -3.811000       16.934000       12.365000
H        -3.664000       19.673000       12.714000
H        -3.528000       17.402000       14.771000
H        -3.065000       19.017000       15.166000
H        -5.117000       19.933001       14.777000
H        -5.746000       18.468000       13.975000
H        -6.583000       18.768999       16.267000
H        -5.644000       17.283001       16.093000
H        -5.285000       18.570999       18.143000
H        -3.776000       18.268000       17.301001
H        -3.981000       20.530001       16.400999
H        -5.303000       20.841000       17.403000
H        -3.795000       20.481001       18.084999
N        -1.180000       20.165001       13.552000
C         0.240000       20.393000       13.765000
C         0.453000       20.712999       15.251000
O        -0.549000       20.988001       15.949000
C         0.761000       21.559999       12.899000
O        -0.071000       22.707001       13.096000
C         0.757000       21.167000       11.416000
O         1.616000       20.700001       15.693000
H        -1.837000       20.889000       13.623000
H         0.783000       19.485001       13.524000
H         1.776000       21.771999       13.203000
H         0.199000       23.451000       12.555000
H         1.052000       20.125999       11.331000
H        -0.258000       21.302999       11.061000
H         1.441000       21.792999       10.852000
@end